


ARM Macro Assembler    Page 1 


    1 00000000                 AREA             MotionBlur, CODE, READONLY
    2 00000000                 IMPORT           main
    3 00000000                 IMPORT           getPicAddr
    4 00000000                 IMPORT           putPic
    5 00000000                 IMPORT           getPicWidth
    6 00000000                 IMPORT           getPicHeight
    7 00000000                 EXPORT           start
    8 00000000                 PRESERVE8
    9 00000000         
   10 00000000         start
   11 00000000         
   12 00000000 E3A00007        MOV              R0, #7      ; diameter
   13 00000004 EB000001        BL               blur
   14 00000008 EBFFFFFE        BL               putPic
   15 0000000C EA000070        B                stop
   16 00000010         
   17 00000010         ;-------------------------------------------------------
                       ------------------------
   18 00000010         
   19 00000010         ; # Subroutines: #
   20 00000010         ;
   21 00000010         ; ## Blur ##
   22 00000010         ; 
   23 00000010         ; Description:
   24 00000010         ; Takes a radius and, for every pixel
   25 00000010         ; changes it to the average of $RADIUS pixels to
   26 00000010         ; the North-West and South-East
   27 00000010         ;
   28 00000010         ; ## Interface ##
   29 00000010         ;
   30 00000010         ; Parameters:
   31 00000010         ; R0 - radius
   32 00000010         
   33 00000010         blur
   34 00000010 E92D41F0        STMFD            sp!, {R4 - R8, lr}
   35 00000014 E1A08000        MOV              R8, R0
   36 00000018 EBFFFFFE        BL               getPicAddr
   37 0000001C E1A04000        MOV              R4, R0
   38 00000020 EBFFFFFE        BL               getPicHeight
   39 00000024 E1A05000        MOV              R5, R0
   40 00000028         forEachRow
   41 00000028 E3550000        CMP              R5, #0
   42 0000002C BA000016        BLT              endForEachRow
   43 00000030 EBFFFFFE        BL               getPicWidth
   44 00000034 E1A06000        MOV              R6, R0
   45 00000038         forEachColumn
   46 00000038 E3560000        CMP              R6, #0
   47 0000003C BA000010        BLT              endForEachColumn
   48 00000040 E3A07002        MOV              R7, #2
   49 00000044         forEachChannel
   50 00000044 E3570000        CMP              R7, #0
   51 00000048 BA00000B        BLT              endForEachChannel
   52 0000004C E1A00005        MOV              R0, R5      ; row
   53 00000050 E1A01006        MOV              R1, R6      ; column
   54 00000054 E1A02007        MOV              R2, R7      ; channel
   55 00000058 E1A03008        MOV              R3, R8      ; radius
   56 0000005C EB00000C        BL               blurChannel
   57 00000060 E1A03000        MOV              R3, R0      ; value
   58 00000064 E1A00005        MOV              R0, R5      ; row



ARM Macro Assembler    Page 2 


   59 00000068 E1A01006        MOV              R1, R6      ; column
   60 0000006C E1A02007        MOV              R2, R7      ; channel
   61 00000070 EB00003C        BL               storeChannel
   62 00000074 E2477001        SUB              R7, #1
   63 00000078 EAFFFFF1        B                forEachChannel
   64 0000007C         endForEachChannel
   65 0000007C E2466001        SUB              R6, #1
   66 00000080 EAFFFFEC        B                forEachColumn
   67 00000084         endForEachColumn
   68 00000084 E2455001        SUB              R5, #1
   69 00000088 EAFFFFE6        B                forEachRow
   70 0000008C         endForEachRow
   71 0000008C E8BD41F0        LDMFD            sp!, {R4 - R8, lr}
   72 00000090 E12FFF1E        BX               lr
   73 00000094         
   74 00000094         ; ## Blur Channel ##
   75 00000094         ;
   76 00000094         ; Description:
   77 00000094         ; Takes the average of $DIAMETER pixels,
   78 00000094         ; taken from the top-left and bottom-right 
   79 00000094         ; of the reference pixel.
   80 00000094         ;
   81 00000094         ; ## Interface ##
   82 00000094         ;
   83 00000094         ; Parameters:
   84 00000094         ; R0 - row
   85 00000094         ; R1 - column
   86 00000094         ; R2 - channel
   87 00000094         ; R3 - diameter
   88 00000094         ; 
   89 00000094         ; Returns:
   90 00000094         ; R0 - new channel value
   91 00000094         
   92 00000094         blurChannel
   93 00000094 E92D47F0        STMFD            sp!, {R4 - R10, lr}
   94 00000098 E1A04000        MOV              R4, R0
   95 0000009C E1A05001        MOV              R5, R1
   96 000000A0 E1A06002        MOV              R6, R2
   97 000000A4 E1A07003        MOV              R7, R3
   98 000000A8         
   99 000000A8 E1A00003        MOV              R0, R3
  100 000000AC E3A01002        MOV              R1, #2
  101 000000B0 EB00003E        BL               divide
  102 000000B4 E1A08000        MOV              R8, R0      ; Pixels in each di
                                                            rection to average
  103 000000B8         
  104 000000B8 E3A09000        MOV              R9, #0      ; Pixel value
  105 000000BC E3A0A000        MOV              R10, #0     ; Pixels counted
  106 000000C0 E3A00000        MOV              R0, #0
  107 000000C4 E040B008        SUB              R11, R0, R8 ; Place in Diameter
                                                            
  108 000000C8         iterateOverDiameter
  109 000000C8         
  110 000000C8 E15B0008        CMP              R11, R8
  111 000000CC CA00000F        BGT              endIterateOverDiameter
  112 000000D0 E084000B        ADD              R0, R4, R11
  113 000000D4 E3500000        CMP              R0, #0
  114 000000D8 BA00000A        BLT              skipPlaceInDiameter
  115 000000DC E1500004        CMP              R0, R4



ARM Macro Assembler    Page 3 


  116 000000E0 CA000008        BGT              skipPlaceInDiameter
  117 000000E4 E085100B        ADD              R1, R5, R11
  118 000000E8 E3510000        CMP              R1, #0
  119 000000EC BA000005        BLT              skipPlaceInDiameter
  120 000000F0 E1510005        CMP              R1, R5
  121 000000F4 CA000003        BGT              skipPlaceInDiameter
  122 000000F8         
  123 000000F8 E1A02006        MOV              R2, R6
  124 000000FC EB000008        BL               getChannel
  125 00000100 E0899000        ADD              R9, R0
  126 00000104 E28AA001        ADD              R10, #1
  127 00000108         skipPlaceInDiameter
  128 00000108 E28BB001        ADD              R11, #1
  129 0000010C EAFFFFED        B                iterateOverDiameter
  130 00000110         endIterateOverDiameter
  131 00000110 E1A00009        MOV              R0, R9
  132 00000114 E1A0100A        MOV              R1, R10
  133 00000118 EB000024        BL               divide
  134 0000011C E8BD47F0        LDMFD            sp!, {R4 - R10, lr}
  135 00000120 E12FFF1E        BX               lr
  136 00000124         
  137 00000124         ; ## Get Channel ##
  138 00000124         ;
  139 00000124         ; Description:
  140 00000124         ; Takes a row and column, returns pixel
  141 00000124         ; at that position.
  142 00000124         ;
  143 00000124         ; ## Interface ##
  144 00000124         ;
  145 00000124         ; Parameters:
  146 00000124         ; R0 - row
  147 00000124         ; R1 - column
  148 00000124         ; R2 - channel
  149 00000124         ; 
  150 00000124         ; Returns:
  151 00000124         ; R0 - channel value
  152 00000124         
  153 00000124         getChannel
  154 00000124 E92D40F0        STMFD            sp!, {R4 - R7, lr}
  155 00000128         
  156 00000128 E1A04000        MOV              R4, R0
  157 0000012C E1A05001        MOV              R5, R1
  158 00000130 E1A06002        MOV              R6, R2
  159 00000134         
  160 00000134 E2444001        SUB              R4, #1
  161 00000138 E2455001        SUB              R5, #1
  162 0000013C EBFFFFFE        BL               getPicWidth
  163 00000140 E0040490        MUL              R4, R0, R4
  164 00000144 E0844005        ADD              R4, R5
  165 00000148         
  166 00000148 E3A02004        MOV              R2, #4
  167 0000014C E0040492        MUL              R4, R2, R4
  168 00000150 E0844006        ADD              R4, R6
  169 00000154 EBFFFFFE        BL               getPicAddr
  170 00000158 E0844000        ADD              R4, R0
  171 0000015C E5D40000        LDRB             R0, [R4]
  172 00000160         
  173 00000160 E8BD40F0        LDMFD            sp!, {R4 - R7, lr}
  174 00000164 E12FFF1E        BX               LR



ARM Macro Assembler    Page 4 


  175 00000168         
  176 00000168         ; ## Store Channel ##
  177 00000168         ;
  178 00000168         ; Description:
  179 00000168         ; Takes a row and column, returns pixel
  180 00000168         ; at that position.
  181 00000168         ;
  182 00000168         ; ## Interface ##
  183 00000168         ;
  184 00000168         ; Parameters:
  185 00000168         ; R0 - row
  186 00000168         ; R1 - column
  187 00000168         ; R2 - channel
  188 00000168         ; R3 - value
  189 00000168         ; 
  190 00000168         ; Returns:
  191 00000168         ; None
  192 00000168         
  193 00000168         storeChannel
  194 00000168 E92D40F0        STMFD            sp!, {R4 - R7, lr}
  195 0000016C         
  196 0000016C E1A04000        MOV              R4, R0
  197 00000170 E1A05001        MOV              R5, R1
  198 00000174 E1A06002        MOV              R6, R2
  199 00000178 E1A07003        MOV              R7, R3
  200 0000017C         
  201 0000017C E2444001        SUB              R4, #1
  202 00000180 E2455001        SUB              R5, #1
  203 00000184 EBFFFFFE        BL               getPicWidth
  204 00000188 E0040490        MUL              R4, R0, R4
  205 0000018C E0844005        ADD              R4, R5
  206 00000190         
  207 00000190 E3A02004        MOV              R2, #4
  208 00000194 E0040492        MUL              R4, R2, R4
  209 00000198 E0844006        ADD              R4, R6
  210 0000019C EBFFFFFE        BL               getPicAddr
  211 000001A0 E0844000        ADD              R4, R0
  212 000001A4 E5C47000        STRB             R7, [R4]
  213 000001A8         
  214 000001A8 E8BD40F0        LDMFD            sp!, {R4 - R7, lr}
  215 000001AC E12FFF1E        BX               LR
  216 000001B0         
  217 000001B0         ; ## Divide ##
  218 000001B0         ;
  219 000001B0         ; Interface:
  220 000001B0         ;
  221 000001B0         ; Parameters:
  222 000001B0         ; R0 - dividend
  223 000001B0         ; R1 - divisor
  224 000001B0         ;
  225 000001B0         ; Returns:
  226 000001B0         ; R0 - quotient
  227 000001B0         ; R1 - Remainder     (Because why not, it's calculated a
                       nyway)
  228 000001B0         ;
  229 000001B0         ; Registers:
  230 000001B0         ; *See parameters*
  231 000001B0         
  232 000001B0         divide



ARM Macro Assembler    Page 5 


  233 000001B0 E3A02000        MOV              R2, #0
  234 000001B4         subtractAgain
  235 000001B4 E1500001        CMP              R0, R1
  236 000001B8 BA000002        BLT              endSubtraction
  237 000001BC E2822001        ADD              R2, #1
  238 000001C0 E0400001        SUB              R0, R1
  239 000001C4 EAFFFFFA        B                subtractAgain
  240 000001C8         endSubtraction
  241 000001C8 E1A01000        MOV              R1, R0
  242 000001CC E1A00002        MOV              R0, R2
  243 000001D0 E12FFF1E        BX               lr
  244 000001D4         
  245 000001D4 EAFFFFFE 
                       stop    B                stop
  246 000001D8         
  247 000001D8                 END
Command Line: --debug --xref --diag_suppress=9931 --apcs=interwork --depend=.\m
otionblur.d -o.\motionblur.o -IC:\Keil_v5\ARM\RV31\INC -IC:\Keil_v5\ARM\CMSIS\I
nclude -IC:\Keil_v5\ARM\Inc\Philips --predefine="__EVAL SETA 1" --predefine="__
MICROLIB SETA 1" --predefine="__UVISION_VERSION SETA 516" --predefine="NO_CLOCK
_SETUP SETA 1" --predefine="NO_EMC_SETUP SETA 1" --predefine="RAM_INTVEC SETA 1
" --predefine="RAM_MODE SETA 1" --predefine="REMAP SETA 1" --list=.\motionblur.
lst MotionBlur.s



ARM Macro Assembler    Page 1 Alphabetic symbol ordering
Relocatable symbols

MotionBlur 00000000

Symbol: MotionBlur
   Definitions
      At line 1 in file MotionBlur.s
   Uses
      None
Comment: MotionBlur unused
blur 00000010

Symbol: blur
   Definitions
      At line 33 in file MotionBlur.s
   Uses
      At line 13 in file MotionBlur.s
Comment: blur used once
blurChannel 00000094

Symbol: blurChannel
   Definitions
      At line 92 in file MotionBlur.s
   Uses
      At line 56 in file MotionBlur.s
Comment: blurChannel used once
divide 000001B0

Symbol: divide
   Definitions
      At line 232 in file MotionBlur.s
   Uses
      At line 101 in file MotionBlur.s
      At line 133 in file MotionBlur.s

endForEachChannel 0000007C

Symbol: endForEachChannel
   Definitions
      At line 64 in file MotionBlur.s
   Uses
      At line 51 in file MotionBlur.s
Comment: endForEachChannel used once
endForEachColumn 00000084

Symbol: endForEachColumn
   Definitions
      At line 67 in file MotionBlur.s
   Uses
      At line 47 in file MotionBlur.s
Comment: endForEachColumn used once
endForEachRow 0000008C

Symbol: endForEachRow
   Definitions
      At line 70 in file MotionBlur.s
   Uses
      At line 42 in file MotionBlur.s
Comment: endForEachRow used once
endIterateOverDiameter 00000110




ARM Macro Assembler    Page 2 Alphabetic symbol ordering
Relocatable symbols

Symbol: endIterateOverDiameter
   Definitions
      At line 130 in file MotionBlur.s
   Uses
      At line 111 in file MotionBlur.s
Comment: endIterateOverDiameter used once
endSubtraction 000001C8

Symbol: endSubtraction
   Definitions
      At line 240 in file MotionBlur.s
   Uses
      At line 236 in file MotionBlur.s
Comment: endSubtraction used once
forEachChannel 00000044

Symbol: forEachChannel
   Definitions
      At line 49 in file MotionBlur.s
   Uses
      At line 63 in file MotionBlur.s
Comment: forEachChannel used once
forEachColumn 00000038

Symbol: forEachColumn
   Definitions
      At line 45 in file MotionBlur.s
   Uses
      At line 66 in file MotionBlur.s
Comment: forEachColumn used once
forEachRow 00000028

Symbol: forEachRow
   Definitions
      At line 40 in file MotionBlur.s
   Uses
      At line 69 in file MotionBlur.s
Comment: forEachRow used once
getChannel 00000124

Symbol: getChannel
   Definitions
      At line 153 in file MotionBlur.s
   Uses
      At line 124 in file MotionBlur.s
Comment: getChannel used once
iterateOverDiameter 000000C8

Symbol: iterateOverDiameter
   Definitions
      At line 108 in file MotionBlur.s
   Uses
      At line 129 in file MotionBlur.s
Comment: iterateOverDiameter used once
skipPlaceInDiameter 00000108

Symbol: skipPlaceInDiameter
   Definitions
      At line 127 in file MotionBlur.s



ARM Macro Assembler    Page 3 Alphabetic symbol ordering
Relocatable symbols

   Uses
      At line 114 in file MotionBlur.s
      At line 116 in file MotionBlur.s
      At line 119 in file MotionBlur.s
      At line 121 in file MotionBlur.s

start 00000000

Symbol: start
   Definitions
      At line 10 in file MotionBlur.s
   Uses
      At line 7 in file MotionBlur.s
Comment: start used once
stop 000001D4

Symbol: stop
   Definitions
      At line 245 in file MotionBlur.s
   Uses
      At line 15 in file MotionBlur.s
      At line 245 in file MotionBlur.s

storeChannel 00000168

Symbol: storeChannel
   Definitions
      At line 193 in file MotionBlur.s
   Uses
      At line 61 in file MotionBlur.s
Comment: storeChannel used once
subtractAgain 000001B4

Symbol: subtractAgain
   Definitions
      At line 234 in file MotionBlur.s
   Uses
      At line 239 in file MotionBlur.s
Comment: subtractAgain used once
19 symbols



ARM Macro Assembler    Page 1 Alphabetic symbol ordering
External symbols

getPicAddr 00000000

Symbol: getPicAddr
   Definitions
      At line 3 in file MotionBlur.s
   Uses
      At line 36 in file MotionBlur.s
      At line 169 in file MotionBlur.s
      At line 210 in file MotionBlur.s

getPicHeight 00000000

Symbol: getPicHeight
   Definitions
      At line 6 in file MotionBlur.s
   Uses
      At line 38 in file MotionBlur.s
Comment: getPicHeight used once
getPicWidth 00000000

Symbol: getPicWidth
   Definitions
      At line 5 in file MotionBlur.s
   Uses
      At line 43 in file MotionBlur.s
      At line 162 in file MotionBlur.s
      At line 203 in file MotionBlur.s

main 00000000

Symbol: main
   Definitions
      At line 2 in file MotionBlur.s
   Uses
      None
Comment: main unused
putPic 00000000

Symbol: putPic
   Definitions
      At line 4 in file MotionBlur.s
   Uses
      At line 14 in file MotionBlur.s
Comment: putPic used once
5 symbols
362 symbols in table
